[
{
  "model": "cars.carmake",
  "pk": 1,
  "fields": {
    "name": "toyota"
  }
},
{
  "model": "cars.carmake",
  "pk": 2,
  "fields": {
    "name": "bmw"
  }
},
{
  "model": "cars.carmake",
  "pk": 3,
  "fields": {
    "name": "honda"
  }
},
{
  "model": "cars.carmake",
  "pk": 4,
  "fields": {
    "name": "audi"
  }
},
{
  "model": "cars.carmake",
  "pk": 5,
  "fields": {
    "name": "cadillac"
  }
},
{
  "model": "cars.carmake",
  "pk": 6,
  "fields": {
    "name": "fiat"
  }
},
{
  "model": "cars.carmake",
  "pk": 7,
  "fields": {
    "name": "ford"
  }
},
{
  "model": "cars.carmake",
  "pk": 8,
  "fields": {
    "name": "ferrari"
  }
},
{
  "model": "cars.carmake",
  "pk": 9,
  "fields": {
    "name": "kia"
  }
},
{
  "model": "cars.carmake",
  "pk": 10,
  "fields": {
    "name": "mitsubishi"
  }
},
{
  "model": "cars.carmake",
  "pk": 11,
  "fields": {
    "name": "nissan"
  }
},
{
  "model": "cars.carmake",
  "pk": 12,
  "fields": {
    "name": "huyndai"
  }
},
{
  "model": "cars.carmake",
  "pk": 13,
  "fields": {
    "name": "volvo"
  }
},
{
  "model": "cars.carmake",
  "pk": 14,
  "fields": {
    "name": "mercedes-benz"
  }
}
]
