[
{
  "model": "members.teamrepair",
  "pk": 1,
  "fields": {
    "created": "2016-10-23T07:29:45.791Z",
    "updated": "2016-10-23T07:29:45.791Z",
    "name": "Team Electric",
    "description": "electric team"
  }
},
{
  "model": "members.teamrepair",
  "pk": 2,
  "fields": {
    "created": "2016-10-23T07:32:29.294Z",
    "updated": "2016-10-23T07:32:29.295Z",
    "name": "Team Mechanical",
    "description": ""
  }
}
]
